exp8/debug.vcd
$date
	Sun May 12 23:51:36 2024
$end
$version
	Icarus Verilog
$end
$timescale
	10ps
$end
$scope module sti_FIR_filter $end
$scope module FIR $end
$var wire 14 ! c0 [13:0] $end
$var wire 14 " c1 [13:0] $end
$var wire 14 # c2 [13:0] $end
$var wire 14 $ c3 [13:0] $end
$var wire 14 % c4 [13:0] $end
$var wire 14 & c5 [13:0] $end
$var wire 1 ' clk $end
$var wire 1 ( rstn $end
$var wire 16 ) trash_input [15:0] $end
$var wire 8 * x_index [7:0] $end
$var wire 26 + trash_output [25:0] $end
$var wire 8 , out_index [7:0] $end
$var wire 26 - direct_out [25:0] $end
$var wire 16 . DIRECT_input [15:0] $end
$var reg 1 / NCE_inp $end
$var reg 1 0 NCE_out $end
$var reg 1 1 NWRT_inp $end
$var reg 1 2 NWRT_out $end
$var reg 10 3 cnt [9:0] $end
$var integer 32 4 i [31:0] $end
$scope module DIRECT_INPUT_MEM $end
$var event 1 5 write $end
$var event 1 6 read $end
$var wire 2 7 CA [1:0] $end
$var wire 1 ' CLK $end
$var wire 16 8 DIN [15:0] $end
$var wire 1 / NCE $end
$var wire 1 1 NWRT $end
$var wire 6 9 RA [5:0] $end
$var wire 16 : DO [15:0] $end
$var wire 16 ; BDO [15:0] $end
$var wire 8 < A [7:0] $end
$var reg 1 = FLAG_X $end
$var reg 16 > do_reg [15:0] $end
$var reg 8 ? r_addr [7:0] $end
$var reg 16 @ r_din [15:0] $end
$var reg 1 A r_nce $end
$var reg 1 B r_nwrt $end
$var reg 16 C temp_reg [15:0] $end
$var reg 16 D write_data [15:0] $end
$var integer 32 E i [31:0] $end
$upscope $end
$scope module DIRECT_OUTPUT_MEM $end
$var event 1 F write $end
$var event 1 G read $end
$var wire 2 H CA [1:0] $end
$var wire 1 ' CLK $end
$var wire 1 0 NCE $end
$var wire 1 2 NWRT $end
$var wire 6 I RA [5:0] $end
$var wire 26 J DO [25:0] $end
$var wire 26 K DIN [25:0] $end
$var wire 26 L BDO [25:0] $end
$var wire 8 M A [7:0] $end
$var reg 1 N FLAG_X $end
$var reg 26 O do_reg [25:0] $end
$var reg 8 P r_addr [7:0] $end
$var reg 26 Q r_din [25:0] $end
$var reg 1 R r_nce $end
$var reg 1 S r_nwrt $end
$var reg 26 T temp_reg [25:0] $end
$var reg 26 U write_data [25:0] $end
$var integer 32 V i [31:0] $end
$upscope $end
$scope module DIR_FIR $end
$var wire 14 W c0 [13:0] $end
$var wire 14 X c1 [13:0] $end
$var wire 14 Y c2 [13:0] $end
$var wire 14 Z c3 [13:0] $end
$var wire 14 [ c4 [13:0] $end
$var wire 14 \ c5 [13:0] $end
$var wire 1 ' clk $end
$var wire 10 ] cnt [9:0] $end
$var wire 16 ^ inp [15:0] $end
$var wire 1 ( rstn $end
$var wire 26 _ out [25:0] $end
$var wire 26 ` after_add [25:0] $end
$scope module DFF_A_0 $end
$var wire 1 ' clk $end
$var wire 20 a inp [19:0] $end
$var wire 1 ( rstn $end
$var reg 20 b out [19:0] $end
$upscope $end
$scope module DFF_A_1 $end
$var wire 1 ' clk $end
$var wire 20 c inp [19:0] $end
$var wire 1 ( rstn $end
$var reg 20 d out [19:0] $end
$upscope $end
$scope module DFF_A_2 $end
$var wire 1 ' clk $end
$var wire 20 e inp [19:0] $end
$var wire 1 ( rstn $end
$var reg 20 f out [19:0] $end
$upscope $end
$scope module DFF_B_0 $end
$var wire 1 ' clk $end
$var wire 19 g inp [18:0] $end
$var wire 1 ( rstn $end
$var reg 19 h out [18:0] $end
$upscope $end
$scope module DFF_B_1 $end
$var wire 1 ' clk $end
$var wire 19 i inp [18:0] $end
$var wire 1 ( rstn $end
$var reg 19 j out [18:0] $end
$upscope $end
$scope module DFF_B_2 $end
$var wire 1 ' clk $end
$var wire 19 k inp [18:0] $end
$var wire 1 ( rstn $end
$var reg 19 l out [18:0] $end
$upscope $end
$scope module DFF_C_0 $end
$var wire 1 ' clk $end
$var wire 20 m inp [19:0] $end
$var wire 1 ( rstn $end
$var reg 20 n out [19:0] $end
$upscope $end
$scope module DFF_C_1 $end
$var wire 1 ' clk $end
$var wire 20 o inp [19:0] $end
$var wire 1 ( rstn $end
$var reg 20 p out [19:0] $end
$upscope $end
$scope module DFF_C_2 $end
$var wire 1 ' clk $end
$var wire 20 q inp [19:0] $end
$var wire 1 ( rstn $end
$var reg 20 r out [19:0] $end
$upscope $end
$scope module DFF_C_3 $end
$var wire 1 ' clk $end
$var wire 20 s inp [19:0] $end
$var wire 1 ( rstn $end
$var reg 20 t out [19:0] $end
$upscope $end
$scope module DFF_C_4 $end
$var wire 1 ' clk $end
$var wire 20 u inp [19:0] $end
$var wire 1 ( rstn $end
$var reg 20 v out [19:0] $end
$upscope $end
$scope module DFF_INP_0 $end
$var wire 1 ' clk $end
$var wire 16 w inp [15:0] $end
$var wire 1 ( rstn $end
$var reg 16 x out [15:0] $end
$upscope $end
$scope module DFF_INP_1 $end
$var wire 1 ' clk $end
$var wire 16 y inp [15:0] $end
$var wire 1 ( rstn $end
$var reg 16 z out [15:0] $end
$upscope $end
$scope module DFF_INP_2 $end
$var wire 1 ' clk $end
$var wire 16 { inp [15:0] $end
$var wire 1 ( rstn $end
$var reg 16 | out [15:0] $end
$upscope $end
$scope module DFF_INP_3 $end
$var wire 1 ' clk $end
$var wire 16 } inp [15:0] $end
$var wire 1 ( rstn $end
$var reg 16 ~ out [15:0] $end
$upscope $end
$scope module DFF_INP_4 $end
$var wire 1 ' clk $end
$var wire 16 !" inp [15:0] $end
$var wire 1 ( rstn $end
$var reg 16 "" out [15:0] $end
$upscope $end
$scope module DFF_INP_5 $end
$var wire 1 ' clk $end
$var wire 16 #" inp [15:0] $end
$var wire 1 ( rstn $end
$var reg 16 $" out [15:0] $end
$upscope $end
$scope module DFF_OUT $end
$var wire 1 ' clk $end
$var wire 26 %" inp [25:0] $end
$var wire 1 ( rstn $end
$var reg 26 &" out [25:0] $end
$upscope $end
$upscope $end
$upscope $end
$upscope $end
$enddefinitions $end
#0
$dumpvars
b0 &"
b0 %"
b0 $"
b0 #"
b0 ""
b0 !"
b0 ~
b0 }
b0 |
b0 {
b0 z
b0 y
b0 x
bx w
b0 v
b0 u
b0 t
b0 s
b0 r
b0 q
b0 p
b0 o
b0 n
b0 m
b0 l
b0 k
b0 j
b0 i
b0 h
b0 g
b0 f
b0 e
b0 d
b0 c
b0 b
b0 a
b0 `
b0 _
bx ^
b0 ]
b10110000011101 \
b100100010111 [
b1101001010111 Z
b111000110111 Y
b1010000110011 X
b11101010100100 W
b100000000 V
bx U
bx T
xS
xR
bx Q
bx P
bx O
0N
b11111000 M
bx L
b0 K
bx J
b111110 I
b0 H
1G
1F
b100000000 E
bx D
bx C
xB
xA
bz @
bx ?
bx >
0=
b0 <
bx ;
bx :
b0 9
bz 8
b0 7
16
15
b0 4
b0 3
12
11
10
1/
bx .
b0 -
b11111000 ,
bx +
b0 *
bz )
0(
1'
b10110000011101 &
b100100010111 %
b1101001010111 $
b111000110111 #
b1010000110011 "
b11101010100100 !
$end
#500
0'
#1000
bx `
bx %"
00
0/
b1 4
bx m
bx g
bx a
bx x
bx y
b11111000 P
b0 Q
1R
1S
b0 ?
1A
1B
1'
1(
#1500
0'
#2000
b1 <
b1 7
b11111001 M
b1 H
b1 *
b11111001 ,
bx z
bx {
bx b
bx c
bx h
bx i
bx n
bx o
bx -
bx K
bx _
bx &"
b10 4
b1 3
b1 ]
0A
0R
1'
#2010
16
1G
#2020
b101000010010001 w
b101000010010001 .
b101000010010001 :
b101000010010001 ^
b101000010010001 ;
b101000010010001 >
#2500
0'
#3000
b10 <
b10 7
b11111010 M
b10 H
b10 *
b11111010 ,
b100011001111110111 m
b11001001011010101 g
b1000001011101011101 a
b11 4
b10 3
b10 ]
bx p
bx q
bx j
bx k
bx d
bx e
bx |
bx }
b101000010010001 x
b101000010010001 y
b11111001 P
bx Q
b1 ?
1'
#3010
1G
16
#3020
b110011111100001 w
b110011111100001 .
b110011111100001 :
b110011111100001 ^
b110011111100001 ;
b110011111100001 >
#3500
0'
#4000
b11 <
b11 7
b11111011 M
b11 H
b11 *
b11111011 ,
b101101011100100111 m
b100000011101100101 g
b1010100011001101101 a
b110011111100001 x
b110011111100001 y
b101000010010001 z
b101000010010001 {
bx ~
bx !"
b1000001011101011101 b
b1000001011101011101 c
bx f
b11001001011010101 h
b11001001011010101 i
bx l
b100011001111110111 n
b100011001111110111 o
bx r
bx s
b100 4
b11 3
b11 ]
b10 ?
b11111010 P
1'
#4010
16
1G
#4020
b1010000010000010 w
b1010000010000010 .
b1010000010000010 :
b1010000010000010 ^
b1010000010000010 ;
b1010000010000010 >
#4500
0'
#5000
b1 9
b100 <
b0 7
b111111 I
b11111100 M
b0 H
b100 *
b11111100 ,
b101 4
b100 3
b100 ]
bx t
bx u
b100011001111110111 p
b100011001111110111 q
b101101011100100111 n
b101101011100100111 o
b11001001011010101 j
b11001001011010101 k
b100000011101100101 h
b100000011101100101 i
b1000001011101011101 d
b1000001011101011101 e
b1010100011001101101 b
b1010100011001101101 c
bx ""
bx #"
b101000010010001 |
b101000010010001 }
b110011111100001 z
b110011111100001 {
b11010110001110001110 m
b1100010001010001010 g
b10110010011010011010 a
b1010000010000010 x
b1010000010000010 y
b11111011 P
b11 ?
1'
#5010
1G
16
#5020
b110100111010011 w
b110100111010011 .
b110100111010011 :
b110100111010011 ^
b110100111010011 ;
b110100111010011 >
#5500
0'
#6000
b101 <
b1 7
b11111101 M
b1 H
b101 *
b11111101 ,
b101110010011000101 m
b100001000100011111 g
b1010101111110110111 a
b110100111010011 x
b110100111010011 y
b1010000010000010 z
b1010000010000010 {
b110011111100001 |
b110011111100001 }
b101000010010001 ~
b101000010010001 !"
bx $"
b10110010011010011010 b
b10110010011010011010 c
b1010100011001101101 d
b1010100011001101101 e
b1000001011101011101 f
b1100010001010001010 h
b1100010001010001010 i
b100000011101100101 j
b100000011101100101 k
b11001001011010101 l
b11010110001110001110 n
b11010110001110001110 o
b101101011100100111 p
b101101011100100111 q
b100011001111110111 r
b100011001111110111 s
bx v
b110 4
b101 3
b101 ]
b100 ?
b11111100 P
1'
#6010
16
1G
#6020
b10000111100010 w
b10000111100010 .
b10000111100010 :
b10000111100010 ^
b10000111100010 ;
b10000111100010 >
#6500
0'
#7000
b110 <
b10 7
b11111110 M
b10 H
b110 *
b11111110 ,
b111 4
b110 3
b110 ]
b100011001111110111 t
b100011001111110111 u
b101101011100100111 r
b101101011100100111 s
b11010110001110001110 p
b11010110001110001110 q
b101110010011000101 n
b101110010011000101 o
b100000011101100101 l
b1100010001010001010 j
b1100010001010001010 k
b100001000100011111 h
b100001000100011111 i
b1010100011001101101 f
b10110010011010011010 d
b10110010011010011010 e
b1010101111110110111 b
b1010101111110110111 c
b101000010010001 ""
b101000010010001 #"
b110011111100001 ~
b110011111100001 !"
b1010000010000010 |
b1010000010000010 }
b110100111010011 z
b110100111010011 {
b1110110100101110 m
b1010100101101010 g
b11011100001111010 a
b10000111100010 x
b10000111100010 y
b11111101 P
b101 ?
1'
#7010
1G
16
#7020
b1001100011111000 w
b1001100011111000 .
b1001100011111000 :
b1001100011111000 ^
b1001100011111000 ;
b1001100011111000 >
#7500
0'
#8000
b11111100100111110101000000 `
b11111100100111110101000000 %"
b111 <
b11 7
b11111111 M
b11 H
b111 *
b11111111 ,
b11010010111011001000 m
b1011111110011011000 g
b10101100010010011000 a
b1001100011111000 x
b1001100011111000 y
b10000111100010 z
b10000111100010 {
b110100111010011 |
b110100111010011 }
b1010000010000010 ~
b1010000010000010 !"
b110011111100001 ""
b110011111100001 #"
b101000010010001 $"
b11011100001111010 b
b11011100001111010 c
b1010101111110110111 d
b1010101111110110111 e
b10110010011010011010 f
b1010100101101010 h
b1010100101101010 i
b100001000100011111 j
b100001000100011111 k
b1100010001010001010 l
b1110110100101110 n
b1110110100101110 o
b101110010011000101 p
b101110010011000101 q
b11010110001110001110 r
b11010110001110001110 s
b101101011100100111 t
b101101011100100111 u
b100011001111110111 v
b1000 4
b111 3
b111 ]
b110 ?
b11111110 P
1'
#8010
16
1G
#8020
b1100011101001011 w
b1100011101001011 .
b1100011101001011 :
b1100011101001011 ^
b1100011101001011 ;
b1100011101001011 >
#8500
0'
#9000
b10 9
b1000 <
b0 7
b0 I
b0 M
b0 H
b1000 *
b0 ,
b11110100101110111111001110 `
b11110100101110111111001110 %"
02
b1001 4
b1000 3
b1000 ]
b11111100100111110101000000 -
b11111100100111110101000000 K
b11111100100111110101000000 _
b11111100100111110101000000 &"
b101101011100100111 v
b11010110001110001110 t
b11010110001110001110 u
b101110010011000101 r
b101110010011000101 s
b1110110100101110 p
b1110110100101110 q
b11010010111011001000 n
b11010010111011001000 o
b100001000100011111 l
b1010100101101010 j
b1010100101101010 k
b1011111110011011000 h
b1011111110011011000 i
b1010101111110110111 f
b11011100001111010 d
b11011100001111010 e
b10101100010010011000 b
b10101100010010011000 c
b110011111100001 $"
b1010000010000010 ""
b1010000010000010 #"
b110100111010011 ~
b110100111010011 !"
b10000111100010 |
b10000111100010 }
b1001100011111000 z
b1001100011111000 {
b11100111001100001101 m
b1101110010001110111 g
b11010001111011001111 a
b1100011101001011 x
b1100011101001011 y
b11111111 P
b111 ?
1'
#9010
1G
16
#9020
b110000000000 w
b110000000000 .
b110000000000 :
b110000000000 ^
b110000000000 ;
b110000000000 >
#9500
0'
#10000
b1001 <
b1 7
b1 M
b1 H
b1000011011100011000110 `
b1000011011100011000110 %"
b1001 *
b1 ,
b101010000000000 m
b11110000000000 g
b1001110000000000 a
b110000000000 x
b110000000000 y
b1100011101001011 z
b1100011101001011 {
b1001100011111000 |
b1001100011111000 }
b10000111100010 ~
b10000111100010 !"
b110100111010011 ""
b110100111010011 #"
b1010000010000010 $"
b11010001111011001111 b
b11010001111011001111 c
b10101100010010011000 d
b10101100010010011000 e
b11011100001111010 f
b1101110010001110111 h
b1101110010001110111 i
b1011111110011011000 j
b1011111110011011000 k
b1010100101101010 l
b11100111001100001101 n
b11100111001100001101 o
b11010010111011001000 p
b11010010111011001000 q
b1110110100101110 r
b1110110100101110 s
b101110010011000101 t
b101110010011000101 u
b11010110001110001110 v
b11110100101110111111001110 -
b11110100101110111111001110 K
b11110100101110111111001110 _
b11110100101110111111001110 &"
b1010 4
b1001 3
b1001 ]
b1000 ?
b0 P
b11111100100111110101000000 Q
0S
1'
#10010
b11111100100111110101000000 U
16
1F
#10020
b111010100011111 w
b111010100011111 .
b111010100011111 :
b111010100011111 ^
b111010100011111 ;
b111010100011111 >
#10500
0'
#11000
b1010 <
b10 7
b10 M
b10 H
b1010 *
b10 ,
b11010011011101001000111011 `
b11010011011101001000111011 %"
b1011 4
b1010 3
b1010 ]
b1000011011100011000110 -
b1000011011100011000110 K
b1000011011100011000110 _
b1000011011100011000110 &"
b101110010011000101 v
b1110110100101110 t
b1110110100101110 u
b11010010111011001000 r
b11010010111011001000 s
b11100111001100001101 p
b11100111001100001101 q
b101010000000000 n
b101010000000000 o
b1011111110011011000 l
b1101110010001110111 j
b1101110010001110111 k
b11110000000000 h
b11110000000000 i
b10101100010010011000 f
b11010001111011001111 d
b11010001111011001111 e
b1001110000000000 b
b1001110000000000 c
b110100111010011 $"
b10000111100010 ""
b10000111100010 #"
b1001100011111000 ~
b1001100011111000 !"
b1100011101001011 |
b1100011101001011 }
b110000000000 z
b110000000000 {
b110011001111011001 m
b100100100110011011 g
b1011111001010010011 a
b111010100011111 x
b111010100011111 y
b1 P
b11110100101110111111001110 Q
b1001 ?
1'
#11010
b11110100101110111111001110 U
1F
16
#11020
b111011100000010 w
b111011100000010 .
b111011100000010 :
b111011100000010 ^
b111011100000010 ;
b111011100000010 >
#11500
0'
#12000
b1011 <
b11 7
b11 M
b11 H
b11110110100101010000011110 `
b11110110100101010000011110 %"
b1011 *
b11 ,
b110100000100001110 m
b100101001100001010 g
b1100000101100011010 a
b111011100000010 x
b111011100000010 y
b111010100011111 z
b111010100011111 {
b110000000000 |
b110000000000 }
b1100011101001011 ~
b1100011101001011 !"
b1001100011111000 ""
b1001100011111000 #"
b10000111100010 $"
b1011111001010010011 b
b1011111001010010011 c
b1001110000000000 d
b1001110000000000 e
b11010001111011001111 f
b100100100110011011 h
b100100100110011011 i
b11110000000000 j
b11110000000000 k
b1101110010001110111 l
b110011001111011001 n
b110011001111011001 o
b101010000000000 p
b101010000000000 q
b11100111001100001101 r
b11100111001100001101 s
b11010010111011001000 t
b11010010111011001000 u
b1110110100101110 v
b11010011011101001000111011 -
b11010011011101001000111011 K
b11010011011101001000111011 _
b11010011011101001000111011 &"
b1100 4
b1011 3
b1011 ]
b1010 ?
b10 P
b1000011011100011000110 Q
1'
#12010
b1000011011100011000110 U
16
1F
#12020
b1010100001011001 w
b1010100001011001 .
b1010100001011001 :
b1010100001011001 ^
b1010100001011001 ;
b1010100001011001 >
#12500
0'
#13000
b11 9
b1100 <
b0 7
b1 I
b100 M
b0 H
b1100 *
b100 ,
b110001111010000001110111 `
b110001111010000001110111 %"
b1101 4
b1100 3
b1100 ]
b11110110100101010000011110 -
b11110110100101010000011110 K
b11110110100101010000011110 _
b11110110100101010000011110 &"
b11010010111011001000 v
b11100111001100001101 t
b11100111001100001101 u
b101010000000000 r
b101010000000000 s
b110011001111011001 p
b110011001111011001 q
b110100000100001110 n
b110100000100001110 o
b11110000000000 l
b100100100110011011 j
b100100100110011011 k
b100101001100001010 h
b100101001100001010 i
b1001110000000000 f
b1011111001010010011 d
b1011111001010010011 e
b1100000101100011010 b
b1100000101100011010 c
b1001100011111000 $"
b1100011101001011 ""
b1100011101001011 #"
b110000000000 ~
b110000000000 !"
b111010100011111 |
b111010100011111 }
b111011100000010 z
b111011100000010 {
b11011001101001101111 m
b1100100100110111101 g
b10111000110010000101 a
b1010100001011001 x
b1010100001011001 y
b11 P
b11010011011101001000111011 Q
b1011 ?
1'
#13010
b11010011011101001000111011 U
1F
16
#13020
b111100001111000 w
b111100001111000 .
b111100001111000 :
b111100001111000 ^
b111100001111000 ;
b111100001111000 >
#13500
0'
#14000
b1101 <
b1 7
b101 M
b1 H
b11100000110101000111000 `
b11100000110101000111000 %"
b1101 *
b101 ,
b110100101101001000 m
b100101101001011000 g
b1100001111000011000 a
b111100001111000 x
b111100001111000 y
b1010100001011001 z
b1010100001011001 {
b111011100000010 |
b111011100000010 }
b111010100011111 ~
b111010100011111 !"
b110000000000 ""
b110000000000 #"
b1100011101001011 $"
b10111000110010000101 b
b10111000110010000101 c
b1100000101100011010 d
b1100000101100011010 e
b1011111001010010011 f
b1100100100110111101 h
b1100100100110111101 i
b100101001100001010 j
b100101001100001010 k
b100100100110011011 l
b11011001101001101111 n
b11011001101001101111 o
b110100000100001110 p
b110100000100001110 q
b110011001111011001 r
b110011001111011001 s
b101010000000000 t
b101010000000000 u
b11100111001100001101 v
b110001111010000001110111 -
b110001111010000001110111 K
b110001111010000001110111 _
b110001111010000001110111 &"
b1110 4
b1101 3
b1101 ]
b1100 ?
b100 P
b11110110100101010000011110 Q
1'
#14010
b11110110100101010000011110 U
16
1F
#14020
b111010100001000 w
b111010100001000 .
b111010100001000 :
b111010100001000 ^
b111010100001000 ;
b111010100001000 >
#14500
0'
#15000
b1110 <
b10 7
b110 M
b10 H
b1110 *
b110 ,
b100011010100011010000100 `
b100011010100011010000100 %"
b1111 4
b1110 3
b1110 ]
b11100000110101000111000 -
b11100000110101000111000 K
b11100000110101000111000 _
b11100000110101000111000 &"
b101010000000000 v
b110011001111011001 t
b110011001111011001 u
b110100000100001110 r
b110100000100001110 s
b11011001101001101111 p
b11011001101001101111 q
b110100101101001000 n
b110100101101001000 o
b100101001100001010 l
b1100100100110111101 j
b1100100100110111101 k
b100101101001011000 h
b100101101001011000 i
b1100000101100011010 f
b10111000110010000101 d
b10111000110010000101 e
b1100001111000011000 b
b1100001111000011000 c
b110000000000 $"
b111010100011111 ""
b111010100011111 #"
b111011100000010 ~
b111011100000010 !"
b1010100001011001 |
b1010100001011001 }
b111100001111000 z
b111100001111000 {
b110011001100111000 m
b100100100100101000 g
b1011111000101101000 a
b111010100001000 x
b111010100001000 y
b101 P
b110001111010000001110111 Q
b1101 ?
1'
#15010
b110001111010000001110111 U
1F
16
#15020
b1111110001000001 w
b1111110001000001 .
b1111110001000001 :
b1111110001000001 ^
b1111110001000001 ;
b1111110001000001 >
#15500
0'
#16000
b1111 <
b11 7
b111 M
b11 H
b100001110001010001111 `
b100001110001010001111 %"
b1111 *
b111 ,
b11111110010111000111 m
b1111110110101000101 g
b11111100111101001101 a
b1111110001000001 x
b1111110001000001 y
b111010100001000 z
b111010100001000 {
b111100001111000 |
b111100001111000 }
b1010100001011001 ~
b1010100001011001 !"
b111011100000010 ""
b111011100000010 #"
b111010100011111 $"
b1011111000101101000 b
b1011111000101101000 c
b1100001111000011000 d
b1100001111000011000 e
b10111000110010000101 f
b100100100100101000 h
b100100100100101000 i
b100101101001011000 j
b100101101001011000 k
b1100100100110111101 l
b110011001100111000 n
b110011001100111000 o
b110100101101001000 p
b110100101101001000 q
b11011001101001101111 r
b11011001101001101111 s
b110100000100001110 t
b110100000100001110 u
b110011001111011001 v
b100011010100011010000100 -
b100011010100011010000100 K
b100011010100011010000100 _
b100011010100011010000100 &"
b10000 4
b1111 3
b1111 ]
b1110 ?
b110 P
b11100000110101000111000 Q
1'
#16010
b11100000110101000111000 U
16
1F
#16020
b100110011011111 w
b100110011011111 .
b100110011011111 :
b100110011011111 ^
b100110011011111 ;
b100110011011111 >
#16500
0'
#17000
b100 9
b10000 <
b0 7
b10 I
b1000 M
b0 H
b10000 *
b1000 ,
b1001010000110100011101 `
b1001010000110100011101 %"
b10001 4
b10000 3
b10000 ]
b100001110001010001111 -
b100001110001010001111 K
b100001110001010001111 _
b100001110001010001111 &"
b110100000100001110 v
b11011001101001101111 t
b11011001101001101111 u
b110100101101001000 r
b110100101101001000 s
b110011001100111000 p
b110011001100111000 q
b11111110010111000111 n
b11111110010111000111 o
b100101101001011000 l
b100100100100101000 j
b100100100100101000 k
b1111110110101000101 h
b1111110110101000101 i
b1100001111000011000 f
b1011111000101101000 d
b1011111000101101000 e
b11111100111101001101 b
b11111100111101001101 c
b111011100000010 $"
b1010100001011001 ""
b1010100001011001 #"
b111100001111000 ~
b111100001111000 !"
b111010100001000 |
b111010100001000 }
b1111110001000001 z
b1111110001000001 {
b100001101000011001 m
b11000000001011011 g
b111110011101010011 a
b100110011011111 x
b100110011011111 y
b111 P
b100011010100011010000100 Q
b1111 ?
1'
#17010
b100011010100011010000100 U
1F
16
#17020
b1010010001010010 w
b1010010001010010 .
b1010010001010010 :
b1010010001010010 ^
b1010010001010010 ;
b1010010001010010 >
#17500
0'
#18000
b10001 <
b1 7
b1001 M
b1 H
b111101110011110010011100 `
b111101110011110010011100 %"
b10001 *
b1001 ,
b11010111111000111110 m
b1100011010110011010 g
b10110101100000101010 a
b1010010001010010 x
b1010010001010010 y
b100110011011111 z
b100110011011111 {
b1111110001000001 |
b1111110001000001 }
b111010100001000 ~
b111010100001000 !"
b111100001111000 ""
b111100001111000 #"
b1010100001011001 $"
b111110011101010011 b
b111110011101010011 c
b11111100111101001101 d
b11111100111101001101 e
b1011111000101101000 f
b11000000001011011 h
b11000000001011011 i
b1111110110101000101 j
b1111110110101000101 k
b100100100100101000 l
b100001101000011001 n
b100001101000011001 o
b11111110010111000111 p
b11111110010111000111 q
b110011001100111000 r
b110011001100111000 s
b110100101101001000 t
b110100101101001000 u
b11011001101001101111 v
b1001010000110100011101 -
b1001010000110100011101 K
b1001010000110100011101 _
b1001010000110100011101 &"
b10010 4
b10001 3
b10001 ]
b10000 ?
b1000 P
b100001110001010001111 Q
1'
#18010
b100001110001010001111 U
16
1F
#18020
b1110101111111000 w
b1110101111111000 .
b1110101111111000 :
b1110101111111000 ^
b1110101111111000 ;
b1110101111111000 >
#18500
0'
#19000
b10010 <
b10 7
b1010 M
b10 H
b10010 *
b1010 ,
b11101111101110110011010101 `
b11101111101110110011010101 %"
b10011 4
b10010 3
b10010 ]
b111101110011110010011100 -
b111101110011110010011100 K
b111101110011110010011100 _
b111101110011110010011100 &"
b110100101101001000 v
b110011001100111000 t
b110011001100111000 u
b11111110010111000111 r
b11111110010111000111 s
b100001101000011001 p
b100001101000011001 q
b11010111111000111110 n
b11010111111000111110 o
b1111110110101000101 l
b11000000001011011 j
b11000000001011011 k
b1100011010110011010 h
b1100011010110011010 i
b11111100111101001101 f
b111110011101010011 d
b111110011101010011 e
b10110101100000101010 b
b10110101100000101010 c
b111100001111000 $"
b111010100001000 ""
b111010100001000 #"
b1111110001000001 ~
b1111110001000001 !"
b100110011011111 |
b100110011011111 }
b1010010001010010 z
b1010010001010010 {
b11110111001111001000 m
b1111001101111011000 g
b11101111101110011000 a
b1110101111111000 x
b1110101111111000 y
b1001 P
b1001010000110100011101 Q
b10001 ?
1'
#19010
b1001010000110100011101 U
1F
16
#19020
b110101001101101 w
b110101001101101 .
b110101001101101 :
b110101001101101 ^
b110101001101101 ;
b110101001101101 >
#19500
0'
#20000
b10011 <
b11 7
b1011 M
b11 H
b11101011100100100100110011 `
b11101011100100100100110011 %"
b10011 *
b1011 ,
b101110100011111011 m
b100001010000100001 g
b1010110011110001001 a
b110101001101101 x
b110101001101101 y
b1110101111111000 z
b1110101111111000 {
b1010010001010010 |
b1010010001010010 }
b100110011011111 ~
b100110011011111 !"
b1111110001000001 ""
b1111110001000001 #"
b111010100001000 $"
b11101111101110011000 b
b11101111101110011000 c
b10110101100000101010 d
b10110101100000101010 e
b111110011101010011 f
b1111001101111011000 h
b1111001101111011000 i
b1100011010110011010 j
b1100011010110011010 k
b11000000001011011 l
b11110111001111001000 n
b11110111001111001000 o
b11010111111000111110 p
b11010111111000111110 q
b100001101000011001 r
b100001101000011001 s
b11111110010111000111 t
b11111110010111000111 u
b110011001100111000 v
b11101111101110110011010101 -
b11101111101110110011010101 K
b11101111101110110011010101 _
b11101111101110110011010101 &"
b10100 4
b10011 3
b10011 ]
b10010 ?
b1010 P
b111101110011110010011100 Q
1'
#20010
b111101110011110010011100 U
16
1F
#20020
b100101011001110 w
b100101011001110 .
b100101011001110 :
b100101011001110 ^
b100101011001110 ;
b100101011001110 >
#20500
0'
#21000
b101 9
b10100 <
b0 7
b11 I
b1100 M
b0 H
b10100 *
b1100 ,
b11111110100111001111100010 `
b11111110100111001111100010 %"
b10101 4
b10100 3
b10100 ]
b11101011100100100100110011 -
b11101011100100100100110011 K
b11101011100100100100110011 _
b11101011100100100100110011 &"
b11111110010111000111 v
b100001101000011001 t
b100001101000011001 u
b11010111111000111110 r
b11010111111000111110 s
b11110111001111001000 p
b11110111001111001000 q
b101110100011111011 n
b101110100011111011 o
b1100011010110011010 l
b1111001101111011000 j
b1111001101111011000 k
b100001010000100001 h
b100001010000100001 i
b10110101100000101010 f
b11101111101110011000 d
b11101111101110011000 e
b1010110011110001001 b
b1010110011110001001 c
b1111110001000001 $"
b100110011011111 ""
b100110011011111 #"
b1010010001010010 ~
b1010010001010010 !"
b1110101111111000 |
b1110101111111000 }
b110101001101101 z
b110101001101101 {
b100000101110100010 m
b10111011000000110 g
b111100110001110110 a
b100101011001110 x
b100101011001110 y
b1011 P
b11101111101110110011010101 Q
b10011 ?
1'
#21010
b11101111101110110011010101 U
1F
16
#21020
b111010110100001 w
b111010110100001 .
b111010110100001 :
b111010110100001 ^
b111010110100001 ;
b111010110100001 >
#21500
0'
#22000
b10101 <
b1 7
b1101 M
b1 H
b11111100000111110110111011 `
b11111100000111110110111011 %"
b10101 *
b1101 ,
b110011011101100111 m
b100100110000100101 g
b1011111100100101101 a
b111010110100001 x
b111010110100001 y
b100101011001110 z
b100101011001110 {
b110101001101101 |
b110101001101101 }
b1110101111111000 ~
b1110101111111000 !"
b1010010001010010 ""
b1010010001010010 #"
b100110011011111 $"
b111100110001110110 b
b111100110001110110 c
b1010110011110001001 d
b1010110011110001001 e
b11101111101110011000 f
b10111011000000110 h
b10111011000000110 i
b100001010000100001 j
b100001010000100001 k
b1111001101111011000 l
b100000101110100010 n
b100000101110100010 o
b101110100011111011 p
b101110100011111011 q
b11110111001111001000 r
b11110111001111001000 s
b11010111111000111110 t
b11010111111000111110 u
b100001101000011001 v
b11111110100111001111100010 -
b11111110100111001111100010 K
b11111110100111001111100010 _
b11111110100111001111100010 &"
b10110 4
b10101 3
b10101 ]
b10100 ?
b1100 P
b11101011100100100100110011 Q
1'
#22010
b11101011100100100100110011 U
16
1F
#22020
b10011111011110 w
b10011111011110 .
b10011111011110 :
b10011111011110 ^
b10011111011110 ;
b10011111011110 >
#22500
0'
#23000
b10110 <
b10 7
b1110 M
b10 H
b10110 *
b1110 ,
b111011111011000001101001 `
b111011111011000001101001 %"
b10111 4
b10110 3
b10110 ]
b11111100000111110110111011 -
b11111100000111110110111011 K
b11111100000111110110111011 _
b11111100000111110110111011 &"
b11010111111000111110 v
b11110111001111001000 t
b11110111001111001000 u
b101110100011111011 r
b101110100011111011 s
b100000101110100010 p
b100000101110100010 q
b110011011101100111 n
b110011011101100111 o
b100001010000100001 l
b10111011000000110 j
b10111011000000110 k
b100100110000100101 h
b100100110000100101 i
b1010110011110001001 f
b111100110001110110 d
b111100110001110110 e
b1011111100100101101 b
b1011111100100101101 c
b1010010001010010 $"
b1110101111111000 ""
b1110101111111000 #"
b110101001101101 ~
b110101001101101 !"
b100101011001110 |
b100101011001110 }
b111010110100001 z
b111010110100001 {
b10001011100010010 m
b1100011101010110 g
b100000011001000110 a
b10011111011110 x
b10011111011110 y
b1101 P
b11111110100111001111100010 Q
b10101 ?
1'
#23010
b11111110100111001111100010 U
1F
16
